D:\My documents\Studia\IT\CleanCode\lab2\lab5_Stokfisz\src\main\java\pl\plodz\mstokfisz\Operators\Summer.java
D:\My documents\Studia\IT\CleanCode\lab2\lab5_Stokfisz\src\main\java\pl\plodz\mstokfisz\Operators\Multiplier.java
D:\My documents\Studia\IT\CleanCode\lab2\lab5_Stokfisz\src\main\java\pl\plodz\mstokfisz\Operators\Divider.java
D:\My documents\Studia\IT\CleanCode\lab2\lab5_Stokfisz\src\main\java\pl\plodz\mstokfisz\Calculator.java
D:\My documents\Studia\IT\CleanCode\lab2\lab5_Stokfisz\src\main\java\pl\plodz\mstokfisz\Operators\Subtractor.java
D:\My documents\Studia\IT\CleanCode\lab2\lab5_Stokfisz\src\main\java\pl\plodz\mstokfisz\Operators\IMathOperation.java
